Data Analysis and Monitoring - 8 Prepro 3: Demo
…
mutate adds additional variables (columns) to a data.frame (see example below).

# Maximum and minimum temperature per calendar week
weather_summary <- weather |>               # 1) take the dataset "weather"
  filter(month == 1) |>                     # 2) filter for the month of January
  mutate(day = day(time)) |>                # 3) create a new column "day"
  group_by(day) |>                          # 4) Use the new column to form groups
  summarise(
    temp_max = max(tre200h0, na.rm = TRUE), # 5) Calculate the maximum
    temp_min = min(tre200h0, na.rm = TRUE)  # 6) Calculate the minimum
  )

weather_summary
## # A tibble: 31 × 3
##      day temp_max temp_min
##    <int>    <dbl>    <dbl>
##  1     1      5.8     -4.4
##  2     2      2.8     -4.3
##  3     3      4.2     -3.1
##  4     4      4.7     -2.8
##  5     5     11.4     -0.6
##  6     6      6.7     -1.6
##  7     7      2.9     -2.8
##  8     8      0.2     -3.6
##  9     9      2.1     -8.8
## 10    10      1.6     -2.4
## # ℹ 21 more rows
…
